{
    "tvision.desktop.apps.noapps":"There are no running applications",
    "tvision.desktop.apps.button.active.account":"Activate Account",

    "com.tvision.app.notifications.heading":"Notifications",
    "com.tvision.app.notifications.filters.label":"Message Type Filters",
    "com.tvision.app.notifications.filter.text":"Text",
    "com.tvision.app.notifications.filter.credentials":"Credentials",
    "com.tvision.app.notifications.filter.message":"Message",

    "":""
}
