<svg width="500" height="200" viewBox="0 0 500 200" version="1.1" xmlns="http://www.w3.org/2000/svg" xmlns:xlink="http://www.w3.org/1999/xlink">
  <style>
  .data-path-background { fill:navy }
  .data-path-node { fill:LightSkyBlue;stroke:green:stroke-width:0 }
  .data-path { stroke:LightSkyBlue;stroke-width:4  }
  </style>
  <defs>
    <linearGradient id="Gradient">
      <stop offset="0" stop-color="white" stop-opacity="1" />
      <stop offset="1" stop-color="white" stop-opacity="0" />
    </linearGradient>
    <mask id="Mask">
      <rect x="0" y="0" width="500" height="250" fill="url(#Gradient)"  />
    </mask>
    <clipPath id="cut-off-bottom">
      <rect x="0" y="10" width="80" height="30" />
    </clipPath>
    <filter id="grayscale">
        <feColorMatrix type="matrix" values="0.3333 0.3333 0.3333 0 0 0.3333 0.3333 0.3333 0 0 0.3333 0.3333 0.3333 0 0 0 0 0 1 0"/>
     </filter>
    <g id="dataPath">
        <circle cx="20" cy="50" r="10" class="data-path-node"  />
        <circle cx="250" cy="50" r="10" class="data-path-node"  />
        <circle cx="40" cy="20" r="10" class="data-path-node"  />
        <circle cx="80" cy="20" r="10" class="data-path-node"  />
        <circle cx="40" cy="80" r="10" class="data-path-node"  />
        <circle cx="80" cy="80" r="10" class="data-path-node"  />
        <circle cx="60" cy="50" r="10" class="data-path-node"  />
        <line x1="20" y1="50" x2="60" y2="50" class="data-path"/>
        <line x1="250" y1="50" x2="60" y2="50" class="data-path"/>
        <line x1="40" y1="20" x2="60" y2="50" class="data-path"/>
        <line x1="80" y1="20" x2="60" y2="50" class="data-path"/>
        <line x1="40" y1="80" x2="60" y2="50" class="data-path"/>
        <line x1="80" y1="80" x2="60" y2="50" class="data-path"/>
    </g>
    <g id="logoStd">
        <rect width="500" height="500" class="data-path-background"/>
        <use xlink:href="#dataPath" x="0" y="0" mask="url(#Mask)"></use>
    </g>
    <g id="logoWithWaterMark">
     <use transform="scale(1.5,1.5)" xlink:href="#dataPath" x="0" y="0" mask="url(#Mask)" filter="url(#grayscale)"></use>
     <use xlink:href="#logoStd" x="0" y="0" mask="url(#Mask)"></use>
    </g>
  </defs>
   <use xlink:href="#logoWithWaterMark" x="0" y="0" filter="url(#grayscale)" transform="scale(1.5, 1.5)" opacity=".04"></use>
  Sorry, your browser does not support inline SVG.
</svg>
