<svg width="300" height="100" viewBox="0 0 300 100" version="1.1" xmlns="http://www.w3.org/2000/svg" xmlns:xlink="http://www.w3.org/1999/xlink">
  <style>
  .data-path-background { fill:navy }
  .data-path-node { fill:LightSkyBlue;stroke:green:stroke-width:0 }
  .data-path { stroke:LightSkyBlue  }
  </style>

  <defs>
    <linearGradient id="Gradient">
      <stop offset="0" stop-color="white" stop-opacity="1" />
      <stop offset="1" stop-color="white" stop-opacity="0" />
    </linearGradient>
    <mask id="Mask">
      <rect x="0" y="0" width="300" height="250" fill="url(#Gradient)"  />
    </mask>
    <clipPath id="cut-off-bottom">
      <rect x="0" y="10" width="80" height="30" />
    </clipPath>

    <g id="dataPath">
      <circle cx="50" cy="20" r="12" class="data-path-node"  />
      <circle cx="60" cy="60" r="17" class="data-path-node" />
      <circle cx="120" cy="40" r="9" class="data-path-node" />
      <circle cx="180" cy="10" r="8" class="data-path-node" />
      <circle cx="250" cy="90" r="11" class="data-path-node" />

      <line x1="50" y1="20" x2="120" y2="40" class="data-path" style="stroke-width:8" />
      <line x1="60" y1="60" x2="120" y2="40" class="data-path" style="stroke-width:6" />
      <line x1="120" y1="40" x2="180" y2="10" class="data-path" style="stroke-width:4" />
      <line x1="180" y1="10" x2="250" y2="90" class="data-path" style="stroke-width:5" />
    </g>

    <g id="logoStd">
    	<rect width="500" height="500" class="data-path-background"/>
   		<use xlink:href="#dataPath" x="0" y="0" mask="url(#Mask)"></use>
    </g>
  </defs>

   <use xlink:href="#logoStd" x="0" y="0" mask="url(#Mask)"></use>



  Sorry, your browser does not support inline SVG.
</svg>
