{
  "id":"myworld.core.demo",
  "name":"Core MyWorld View",
  "version":"0.1.0",
  "service" : {
    "bean" : {
      "path" : ".",
      "bean" : "MyWorldMainService.MyWorldMainService",
      "language" : "jython"
    }
  }
}