{
  "commandThreadPoolSize" : 20,
  "uiThreadPoolSize" : 20,

  "pluginsHomePath" : "./demo-data/plugins",
  "corePluginIds" : ["myworld.core.demo", "myworld.core.demo.pk2"],
  "entryPluginId" : "myworld.core.demo"
}