{
      "indexGroups":[{
        "indices":[
            0, 1, 2,      0, 2, 3,
            4, 5, 6,      4, 6, 7,
            8, 9, 10,     8, 10, 11,
            12, 13, 14,   12, 14, 15,
            16, 17, 18,   16, 18, 19,
            20, 21, 22,   20, 22, 23
        ],
        "indexCount":36,
        "material":"material-1"
      }],
      "materials":{
        "material-1":{
          "texture0":"texture-1",
          "diffuseColor":[1.0,1.0,1.0,1.0],
          "ambientColor":[0.8,0.8,0.8,0.8],
          "specularColor":[1.0,1.0,1.0,1.0],
          "emissionColor":[1.0,1.0,1.0,1.0],
          "shininess":30.0
        }
      },
      "textures":[{
        "id":"texture-1",
        "url":"https://raw.githubusercontent.com/fredriquesamuels/dashboard-ui/master/resources/gl/images/nehe.png",
        "format":"image/png"
      }],
      "vertices":[
          -0.5, -0.5,  0.5,
           0.5, -0.5,  0.5,
           0.5,  0.5,  0.5,
          -0.5,  0.5,  0.5,
          -0.5, -0.5, -0.5,
          -0.5,  0.5, -0.5,
           0.5,  0.5, -0.5,
           0.5, -0.5, -0.5,
          -0.5,  0.5, -0.5,
          -0.5,  0.5,  0.5,
           0.5,  0.5,  0.5,
           0.5,  0.5, -0.5,
          -0.5, -0.5, -0.5,
           0.5, -0.5, -0.5,
           0.5, -0.5,  0.5,
          -0.5, -0.5,  0.5,
           0.5, -0.5, -0.5,
           0.5,  0.5, -0.5,
           0.5,  0.5,  0.5,
           0.5, -0.5,  0.5,
          -0.5, -0.5, -0.5,
          -0.5, -0.5,  0.5,
          -0.5,  0.5,  0.5,
          -0.5,  0.5, -0.5
      ],
      "vertexCount":12,
      "texCoords":[
        0.0, 0.0,
        1.0, 0.0,
        1.0, 1.0,
        0.0, 1.0,
        1.0, 0.0,
        1.0, 1.0,
        0.0, 1.0,
        0.0, 0.0,
        0.0, 1.0,
        0.0, 0.0,
        1.0, 0.0,
        1.0, 1.0,
        1.0, 1.0,
        0.0, 1.0,
        0.0, 0.0,
        1.0, 0.0,
        1.0, 0.0,
        1.0, 1.0,
        0.0, 1.0,
        0.0, 0.0,
        0.0, 0.0,
        1.0, 0.0,
        1.0, 1.0,
        0.0, 1.0
      ],
      "texCoordCount":24,
      "vertexNormals":[
           0.0,  0.0,  1.0,
           0.0,  0.0,  1.0,
           0.0,  0.0,  1.0,
           0.0,  0.0,  1.0,
           0.0,  0.0, -1.0,
           0.0,  0.0, -1.0,
           0.0,  0.0, -1.0,
           0.0,  0.0, -1.0,
           0.0,  1.0,  0.0,
           0.0,  1.0,  0.0,
           0.0,  1.0,  0.0,
           0.0,  1.0,  0.0,
           0.0, -1.0,  0.0,
           0.0, -1.0,  0.0,
           0.0, -1.0,  0.0,
           0.0, -1.0,  0.0,
           1.0,  0.0,  0.0,
           1.0,  0.0,  0.0,
           1.0,  0.0,  0.0,
           1.0,  0.0,  0.0,
          -1.0,  0.0,  0.0,
          -1.0,  0.0,  0.0,
          -1.0,  0.0,  0.0,
          -1.0,  0.0,  0.0
        ],
      "vertexNormalCount":24
}
